^F:\QTWIDGETSAPPLICATION1\X64\RELEASE\CLASSIFIER.OBJ|F:\QTWIDGETSAPPLICATION1\X64\RELEASE\DETECTOR.OBJ|F:\QTWIDGETSAPPLICATION1\X64\RELEASE\GENERATOR.OBJ|F:\QTWIDGETSAPPLICATION1\X64\RELEASE\MAIN.OBJ|F:\QTWIDGETSAPPLICATION1\X64\RELEASE\MOC_QTWIDGETSAPPLICATION1.OBJ|F:\QTWIDGETSAPPLICATION1\X64\RELEASE\QRC_QTWIDGETSAPPLICATION1.OBJ|F:\QTWIDGETSAPPLICATION1\X64\RELEASE\QTWIDGETSAPPLICATION1.OBJ|F:\QTWIDGETSAPPLICATION1\X64\RELEASE\SEGMENTOR.OBJ
D:\PROGRAM\LIBTORCH\LIB\TORCH.LIB
D:\PROGRAM\LIBTORCH\LIB\TORCH_CUDA.LIB
D:\PROGRAM\LIBTORCH\LIB\CAFFE2_NVRTC.LIB
D:\PROGRAM\LIBTORCH\LIB\C10.LIB
D:\PROGRAM\LIBTORCH\LIB\C10_CUDA.LIB
D:\PROGRAM\LIBTORCH\LIB\TORCH_CPU.LIB
D:\PROGRAM\OPENCV\BUILD\X64\VC15\LIB\OPENCV_WORLD3414.LIB
F:\QT\QT5.12.10\5.12.10\MSVC2017_64\LIB\QT5CORE.LIB
F:\QT\QT5.12.10\5.12.10\MSVC2017_64\LIB\QT5GUI.LIB
F:\QT\QT5.12.10\5.12.10\MSVC2017_64\LIB\QT5WIDGETS.LIB
F:\QT\QT5.12.10\5.12.10\MSVC2017_64\LIB\QTMAIN.LIB
C:\PROGRAM FILES (X86)\WINDOWS KITS\10\LIB\10.0.19041.0\UM\X64\SHELL32.LIB
C:\PROGRAM FILES (X86)\WINDOWS KITS\10\LIB\10.0.19041.0\UM\X64\KERNEL32.LIB
C:\PROGRAM FILES (X86)\WINDOWS KITS\10\LIB\10.0.19041.0\UM\X64\USER32.LIB
C:\PROGRAM FILES (X86)\WINDOWS KITS\10\LIB\10.0.19041.0\UM\X64\GDI32.LIB
C:\PROGRAM FILES (X86)\WINDOWS KITS\10\LIB\10.0.19041.0\UM\X64\WINSPOOL.LIB
C:\PROGRAM FILES (X86)\WINDOWS KITS\10\LIB\10.0.19041.0\UM\X64\COMDLG32.LIB
C:\PROGRAM FILES (X86)\WINDOWS KITS\10\LIB\10.0.19041.0\UM\X64\ADVAPI32.LIB
C:\PROGRAM FILES (X86)\WINDOWS KITS\10\LIB\10.0.19041.0\UM\X64\OLE32.LIB
C:\PROGRAM FILES (X86)\WINDOWS KITS\10\LIB\10.0.19041.0\UM\X64\OLEAUT32.LIB
C:\PROGRAM FILES (X86)\WINDOWS KITS\10\LIB\10.0.19041.0\UM\X64\UUID.LIB
C:\PROGRAM FILES (X86)\WINDOWS KITS\10\LIB\10.0.19041.0\UM\X64\ODBC32.LIB
C:\PROGRAM FILES (X86)\WINDOWS KITS\10\LIB\10.0.19041.0\UM\X64\ODBCCP32.LIB
F:\QTWIDGETSAPPLICATION1\X64\RELEASE\SEGMENTOR.OBJ
F:\QTWIDGETSAPPLICATION1\X64\RELEASE\CLASSIFIER.OBJ
F:\QTWIDGETSAPPLICATION1\X64\RELEASE\DETECTOR.OBJ
F:\QTWIDGETSAPPLICATION1\X64\RELEASE\GENERATOR.OBJ
F:\QTWIDGETSAPPLICATION1\X64\RELEASE\QTWIDGETSAPPLICATION1.OBJ
F:\QTWIDGETSAPPLICATION1\X64\RELEASE\MAIN.OBJ
F:\QTWIDGETSAPPLICATION1\X64\RELEASE\QRC_QTWIDGETSAPPLICATION1.OBJ
F:\QTWIDGETSAPPLICATION1\X64\RELEASE\MOC_QTWIDGETSAPPLICATION1.OBJ
C:\WINDOWS\GLOBALIZATION\SORTING\SORTDEFAULT.NLS
D:\MICROSOFT VISUAL STUDIO\VC\TOOLS\MSVC\14.28.29910\LIB\X64\MSVCPRT.LIB
D:\MICROSOFT VISUAL STUDIO\VC\TOOLS\MSVC\14.28.29910\LIB\X64\MSVCRT.LIB
D:\MICROSOFT VISUAL STUDIO\VC\TOOLS\MSVC\14.28.29910\LIB\X64\OLDNAMES.LIB
D:\MICROSOFT VISUAL STUDIO\VC\TOOLS\MSVC\14.28.29910\LIB\X64\CONCRT.LIB
D:\MICROSOFT VISUAL STUDIO\VC\TOOLS\MSVC\14.28.29910\LIB\X64\VCRUNTIME.LIB
C:\PROGRAM FILES (X86)\WINDOWS KITS\10\LIB\10.0.19041.0\UCRT\X64\UCRT.LIB
C:\WINDOWS\SYSTEM32\TZRES.DLL
D:\MICROSOFT VISUAL STUDIO\VC\TOOLS\MSVC\14.28.29910\BIN\HOSTX86\X64\2052\LINKUI.DLL
D:\MICROSOFT VISUAL STUDIO\VC\TOOLS\MSVC\14.28.29910\BIN\HOSTX86\X64\CVTRES.EXE
